com\mycompany\traductorapolo\controller\TraducirAction.class
com\mycompany\traductorapolo\utils\Text_to_Speech.class
com\mycompany\traductorapolo\beans\text_speech\AudioContent.class
com\mycompany\traductorapolo\beans\text_speech\Input.class
com\mycompany\traductorapolo\beans\text_speech\Text_Speech.class
com\mycompany\traductorapolo\beans\text_speech\AudioConfig.class
com\mycompany\traductorapolo\beans\text_speech\Voice.class
com\mycompany\traductorapolo\utils\Text_to_Text.class
com\mycompany\traductorapolo\beans\speech_text\Audio.class
com\mycompany\traductorapolo\beans\translator\Traductor.class
com\mycompany\traductorapolo\utils\Speech_to_Text.class
com\mycompany\traductorapolo\beans\speech_text\Speech_Text.class
com\mycompany\traductorapolo\beans\speech_text\Config.class
com\mycompany\traductorapolo\controller\Controller.class
